Prior
…
tables_wide <- tables_tidy %>%  spread(key=cell, value=val)

means_p <- tables_wide %>% group_by(noise_v, cn) %>%
            summarize(mean_p=mean(p), min_p=min(p), max_p=max(p),
                      median_p=median(p),
                      mean_pac=mean(p_ac), min_pac=min(p_ac), max_pac=max(p_ac),
                      median_pac=median(p_ac))
means_p

## # A tibble: 63 x 10
## # Groups:   noise_v [7]
##    noise_v cn    mean_p   min_p max_p median_p mean_pac   min_pac max_pac
##      <dbl> <fct>  <dbl>   <dbl> <dbl>    <dbl>    <dbl>     <dbl>   <dbl>
##  1       5 -A i 0.136  7.47e-5 0.248   0.146    0.907    4.82e-1   1.000
##  2       5 -A i 0.135  1.29e-4 0.243   0.145    0.0941   5.66e-5   0.549
##  3       5 -C i 0.139  3.31e-4 0.246   0.152    0.863    3.65e-3   1.000
##  4       5 -C i 0.136  2.95e-4 0.244   0.145    0.145    1.13e-5   0.996
##  5       5 A || 0.0310 0.      0.214   0.0148 NaN      NaN       NaN    
##  6       5 A im 0.140  2.29e-3 0.246   0.149    0.0874   6.37e-5   0.566
##  7       5 A im 0.136  7.36e-4 0.246   0.145    0.910    4.91e-1   1.000
##  8       5 C im 0.132  9.40e-4 0.248   0.139    0.158    7.37e-5   0.988
##  9       5 C im 0.136  4.95e-4 0.244   0.145    0.850    7.82e-3   1.000
## 10      10 -A i 0.136  7.47e-5 0.248   0.146    0.908    4.82e-1   1.000
## #  with 53 more rows, and 1 more variable: median_pac <dbl>
…
df <- densities_tibble %>% group_by(noise_v) %>% 
      mutate(f1=dbeta(x, 1, 25), f2=dbeta(x, 1,30),
             f3=dbeta(x, 1, 35), f4=dbeta(x, 1,50),
             f5=dbeta(x, 1, 70), f6=dbeta(x, 1,110),
             f7=dbeta(x, 1, 150)) %>% 
      gather(f1, f2, f3, f4, f5, f6, f7, key="model", value="val")

df_summary <- df %>% group_by(noise_v, model) %>% summarise(mse=mse(y,val))
df_summary 

## # A tibble: 49 x 3
## # Groups:   noise_v [7]
##    noise_v model    mse
##      <dbl> <chr>  <dbl>
##  1       5 f1      2.23
##  2       5 f2      3.80
##  3       5 f3      6.61
##  4       5 f4     20.1 
##  5       5 f5     45.2 
##  6       5 f6    107.  
##  7       5 f7    177.  
##  8      10 f1      1.59
##  9      10 f2      2.13
## 10      10 f3      4.44
## #  with 39 more rows
…
